<svg width="512" height="512" viewBox="0 0 512 512" fill="none" xmlns="http://www.w3.org/2000/svg">
<g clip-path="url(#clip0_78_67)">
<rect width="512" height="512" fill="url(#paint0_linear_78_67)"/>
<g filter="url(#filter0_df_78_67)">
<path d="M400 565.5L210 456V448L307 108.5L713 283L400 565.5Z" fill="#96F24F"/>
</g>
<rect x="122" y="31" width="267" height="450" rx="39" fill="black"/>
<g clip-path="url(#clip1_78_67)">
<rect x="142" y="324.623" width="34" height="34" rx="2.06364" fill="#FAB500"/>
<rect x="189.489" y="324.623" width="34" height="34" rx="2.06364" fill="#FAB500"/>
<rect x="236.977" y="324.623" width="34" height="34" rx="2.06364" fill="#FAB500"/>
<rect x="142" y="372.111" width="34" height="34" rx="2.06364" fill="#FAB500"/>
<rect x="189.489" y="372.111" width="34" height="34" rx="2.06364" fill="#FAB500"/>
<rect x="236.977" y="372.111" width="34" height="34" rx="2.06364" fill="#FAB500"/>
<rect x="142" y="419.6" width="34" height="34" rx="2.06364" fill="#FAB500"/>
<rect x="189.489" y="419.6" width="34" height="34" rx="2.06364" fill="#FAB500"/>
<rect x="236.977" y="419.6" width="34" height="34" rx="2.06364" fill="#FAB500"/>
</g>
<rect x="336.854" y="272" width="32" height="32" rx="5.15909" fill="#FAB500"/>
<rect x="289" y="373" width="32" height="32" rx="5.15909" fill="#FAB500"/>
<rect x="337" y="373" width="32" height="81" rx="5.15909" fill="#FAB500"/>
<rect x="289" y="422" width="32" height="32" rx="5.15909" fill="#FAB500"/>
<rect x="289.455" y="272" width="32" height="32" rx="5.15909" fill="#FAB500"/>
<rect x="289.455" y="324.623" width="32" height="32" rx="5.15909" fill="#FAB500"/>
<rect x="337" y="325" width="32" height="32" rx="5.15909" fill="#FAB500"/>
<rect x="142" y="272" width="34" height="32" rx="5.15909" fill="#FAB500"/>
<rect x="189" y="272" width="34" height="32" rx="5.15909" fill="#FAB500"/>
<rect x="237" y="272" width="34" height="32" rx="5.15909" fill="#FAB500"/>
<rect x="142" y="80" width="227" height="178" rx="15" fill="#114E5B"/>
<rect x="210" y="44" width="92" height="25" rx="7" fill="#FAB500"/>
<rect x="228" y="51" width="56" height="11" rx="2" fill="#4E4E4E"/>
<path d="M184.531 146.5V192H173.594V146.5H184.531ZM237.688 161.312V169.438H208.719V161.312H237.688ZM237.688 175.031V183.156H208.719V175.031H237.688ZM261.625 146.5H279.531C283.031 146.5 286.073 147.021 288.656 148.062C291.24 149.104 293.229 150.646 294.625 152.688C296.042 154.729 296.75 157.25 296.75 160.25C296.75 162.854 296.344 165.031 295.531 166.781C294.719 168.531 293.583 169.979 292.125 171.125C290.688 172.25 289.01 173.177 287.094 173.906L283.5 175.938H268.469L268.406 167.469H279.531C280.927 167.469 282.083 167.219 283 166.719C283.917 166.219 284.604 165.51 285.062 164.594C285.542 163.656 285.781 162.542 285.781 161.25C285.781 159.938 285.542 158.812 285.062 157.875C284.583 156.938 283.875 156.219 282.938 155.719C282.021 155.219 280.885 154.969 279.531 154.969H272.594V192H261.625V146.5ZM286.531 192L276.469 171.875L288.094 171.812L298.281 191.531V192H286.531ZM319.969 181.281L329.438 146.5H341.719L326.375 192H318.438L319.969 181.281ZM311.375 146.5L320.844 181.281L322.438 192H314.406L299.156 146.5H311.375Z" fill="white"/>
</g>
<defs>
<filter id="filter0_df_78_67" x="206" y="107.5" width="511" height="479" filterUnits="userSpaceOnUse" color-interpolation-filters="sRGB">
<feFlood flood-opacity="0" result="BackgroundImageFix"/>
<feColorMatrix in="SourceAlpha" type="matrix" values="0 0 0 0 0 0 0 0 0 0 0 0 0 0 0 0 0 0 127 0" result="hardAlpha"/>
<feOffset dy="17"/>
<feGaussianBlur stdDeviation="2"/>
<feComposite in2="hardAlpha" operator="out"/>
<feColorMatrix type="matrix" values="0 0 0 0 0 0 0 0 0 0 0 0 0 0 0 0 0 0 0.25 0"/>
<feBlend mode="normal" in2="BackgroundImageFix" result="effect1_dropShadow_78_67"/>
<feBlend mode="normal" in="SourceGraphic" in2="effect1_dropShadow_78_67" result="shape"/>
<feGaussianBlur stdDeviation="0.5" result="effect2_foregroundBlur_78_67"/>
</filter>
<linearGradient id="paint0_linear_78_67" x1="512" y1="0" x2="0" y2="512" gradientUnits="userSpaceOnUse">
<stop stop-color="#F3FB77"/>
<stop offset="1" stop-color="#FFB45A"/>
</linearGradient>
<clipPath id="clip0_78_67">
<rect width="512" height="512" fill="white"/>
</clipPath>
<clipPath id="clip1_78_67">
<rect width="128.977" height="128.977" fill="white" transform="translate(142 324.623)"/>
</clipPath>
</defs>
</svg>
